<svg xmlns="http://www.w3.org/2000/svg" width="13.558" height="13.558" viewBox="0 0 13.558 13.558">
  <path id="clock-outline" d="M8.779,14.2A5.423,5.423,0,1,0,3.356,8.779,5.423,5.423,0,0,0,8.779,14.2m0-12.2A6.779,6.779,0,1,1,2,8.779,6.779,6.779,0,0,1,8.779,2m.339,3.389V8.948l3.05,1.81-.508.834L8.1,9.457V5.389Z" transform="translate(-2 -2)" fill="#828585"/>
</svg>
