<svg xmlns="http://www.w3.org/2000/svg" xmlns:xlink="http://www.w3.org/1999/xlink" width="312.867" height="306.006" viewBox="0 0 312.867 306.006">
  <defs>
    <linearGradient id="linear-gradient" x1="3.019" y1="-0.038" x2="2.074" y2="-1.186" gradientUnits="objectBoundingBox">
      <stop offset="0" stop-color="#4f52ff"/>
      <stop offset="1" stop-color="#4042e2"/>
    </linearGradient>
    <linearGradient id="linear-gradient-2" x1="0.802" y1="-4.083" x2="1.845" y2="-4.083" gradientUnits="objectBoundingBox">
      <stop offset="0" stop-color="#febbba"/>
      <stop offset="1" stop-color="#ff928e"/>
    </linearGradient>
    <linearGradient id="linear-gradient-3" x1="0.17" y1="1.057" x2="-1.001" y2="1.743" xlink:href="#linear-gradient"/>
    <linearGradient id="linear-gradient-4" x1="-0.706" y1="1.998" x2="0.713" y2="0.25" xlink:href="#linear-gradient-2"/>
    <linearGradient id="linear-gradient-5" x1="0.559" y1="0.94" x2="-1.699" y2="1.727" xlink:href="#linear-gradient"/>
    <linearGradient id="linear-gradient-6" x1="3.002" y1="-0.037" x2="0.627" y2="0.48" gradientUnits="objectBoundingBox">
      <stop offset="0" stop-color="#09005d"/>
      <stop offset="1" stop-color="#1a0f91"/>
    </linearGradient>
    <linearGradient id="linear-gradient-7" x1="0.363" y1="1.033" x2="-0.88" y2="7.264" xlink:href="#linear-gradient-2"/>
    <linearGradient id="linear-gradient-8" x1="1.091" y1="0.318" x2="-0.084" y2="1.085" xlink:href="#linear-gradient-2"/>
    <linearGradient id="linear-gradient-9" x1="0.414" y1="0.124" x2="1.118" y2="1.143" xlink:href="#linear-gradient-6"/>
    <linearGradient id="linear-gradient-10" x1="3.934" y1="-0.554" x2="-0.915" y2="1.831" xlink:href="#linear-gradient-2"/>
    <linearGradient id="linear-gradient-11" x1="11.758" y1="6.98" x2="11.056" y2="9.067" xlink:href="#linear-gradient-6"/>
    <linearGradient id="linear-gradient-12" x1="0.946" y1="-0.73" x2="-0.211" y2="2.452" xlink:href="#linear-gradient"/>
    <linearGradient id="linear-gradient-13" x1="1.638" y1="-2.591" x2="-0.869" y2="4.221" xlink:href="#linear-gradient"/>
    <linearGradient id="linear-gradient-14" x1="2.927" y1="0.63" x2="-3.166" y2="1.792" xlink:href="#linear-gradient"/>
    <linearGradient id="linear-gradient-15" x1="1.492" y1="-0.373" x2="0.466" y2="0.555" xlink:href="#linear-gradient"/>
    <linearGradient id="linear-gradient-16" x1="0.673" y1="0.544" x2="-2.503" y2="-2.074" xlink:href="#linear-gradient"/>
    <linearGradient id="linear-gradient-17" x1="0.493" y1="2.48" x2="0.507" y2="-2.067" xlink:href="#linear-gradient-6"/>
    <linearGradient id="linear-gradient-18" x1="0.414" y1="0.161" x2="0.62" y2="0.974" xlink:href="#linear-gradient-6"/>
    <linearGradient id="linear-gradient-19" x1="0.345" y1="-0.247" x2="0.729" y2="1.667" xlink:href="#linear-gradient-6"/>
    <linearGradient id="linear-gradient-20" x1="0.356" y1="-0.421" x2="1.091" y2="4.281" xlink:href="#linear-gradient-6"/>
    <linearGradient id="linear-gradient-21" x1="0.798" y1="-0.129" x2="-4.742" y2="11.541" gradientUnits="objectBoundingBox">
      <stop offset="0" stop-color="#ff928e"/>
      <stop offset="1" stop-color="#fe7062"/>
    </linearGradient>
    <linearGradient id="linear-gradient-22" x1="0.847" y1="-0.231" x2="-4.318" y2="10.648" xlink:href="#linear-gradient-21"/>
    <linearGradient id="linear-gradient-23" x1="1.164" y1="-0.899" x2="-4.708" y2="11.47" xlink:href="#linear-gradient-21"/>
    <linearGradient id="linear-gradient-24" x1="1.314" y1="-1.215" x2="-3.597" y2="9.129" xlink:href="#linear-gradient-21"/>
  </defs>
  <g id="Group_8758" data-name="Group 8758" transform="translate(-920.326 -1490.156)">
    <path id="Path_12270" data-name="Path 12270" d="M796.989,631.843c-6.168-40.37-11.119-68.269-33.39-83.557-37.567-25.787-79.522,16.076-132.737-12.014-26.2-13.832-27.183-29.866-49.374-31.989-39.259-3.766-71.409,43.086-74.2,47.1a102.139,102.139,0,0,0-15.721,82.552c4.456,18.433,7.47,37.51,6.643,56.451-1.438,32.971-.61,63.736,31.382,83.4,28.565,17.554,64.514,33.036,98.811,35.747,23.307,1.842,49.445-1.139,71.909-7.207C814.8,771.4,805.469,687.349,796.989,631.843Z" transform="translate(431.604 986.089)" fill="#ffefef"/>
    <g id="_20943705_Converted_" data-name="20943705 [Converted]" transform="translate(471.289 1028.736)">
      <g id="Illustration" transform="translate(449.711 461.42)">
        <path id="Path_13513" data-name="Path 13513" d="M1467.816,1346.292a.538.538,0,0,1-.429-.272c-.349-.615-.717-1.229-1.093-1.824a.539.539,0,0,1,.91-.575c.385.61.763,1.238,1.12,1.869a.539.539,0,0,1-.509.8Z" transform="translate(-1370.629 -1260.446)" fill="#91b3fa"/>
        <path id="Path_13514" data-name="Path 13514" d="M1000,1491.327c-.814-.051-1.65-.145-2.463-.249a.54.54,0,0,1-.47-.6.546.546,0,0,1,.6-.47c.794.1,1.617.182,2.406.244.584.043,1.182.075,1.778.094a.52.52,0,0,1,.519.556.538.538,0,0,1-.556.52C1001.213,1491.4,1000.6,1491.371,1000,1491.327Zm8.691-.2a.539.539,0,0,1-.024-1.072c1.342-.16,2.7-.385,4.026-.667l.116-.024a.539.539,0,1,1,.224,1.053l-.116.024c-1.362.29-2.748.519-4.122.684A.552.552,0,0,1,1008.693,1491.127Zm10.8-2.652a.539.539,0,0,1-.151-1.04c1.307-.5,2.6-1.06,3.849-1.673a.539.539,0,0,1,.47.967c-1.277.628-2.6,1.2-3.941,1.712a.536.536,0,0,1-.227.034Zm9.831-5.2a.539.539,0,0,1-.269-.978c1.141-.8,2.257-1.662,3.32-2.565a.539.539,0,1,1,.7.821c-1.087.925-2.231,1.808-3.4,2.627A.542.542,0,0,1,1029.328,1483.274Zm8.261-7.451a.526.526,0,0,1-.312-.13.538.538,0,0,1-.055-.759c.911-1.052,1.787-2.163,2.6-3.3a.538.538,0,0,1,.876.626c-.83,1.162-1.726,2.3-2.66,3.375A.534.534,0,0,1,1037.59,1475.823Zm6.207-9.235a.54.54,0,0,1-.44-.781c.631-1.244,1.21-2.532,1.721-3.828a.539.539,0,0,1,1,.4c-.523,1.326-1.116,2.645-1.761,3.92a.539.539,0,0,1-.528.293Zm3.777-10.464a.561.561,0,0,1-.079-.012.538.538,0,0,1-.406-.644c.308-1.362.555-2.752.733-4.138a.539.539,0,0,1,1.068.138c-.183,1.41-.435,2.838-.752,4.232a.54.54,0,0,1-.572.424Zm1.1-11.075a.538.538,0,0,1-.5-.523c-.035-1.393-.136-2.8-.3-4.187a.539.539,0,1,1,1.069-.128c.169,1.418.274,2.861.309,4.287a.54.54,0,0,1-.587.55Zm-1.634-11.007a.537.537,0,0,1-.479-.393c-.376-1.349-.811-2.691-1.3-3.99a.539.539,0,1,1,1.007-.376c.5,1.329.953,2.7,1.334,4.084a.537.537,0,0,1-.567.675Z" transform="translate(-945.592 -1337.916)" fill="#91b3fa"/>
        <path id="Path_13515" data-name="Path 13515" d="M905.6,2058.453a.562.562,0,0,1-.11-.02c-.692-.2-1.391-.421-2.076-.658a.539.539,0,1,1,.348-1.019c.67.229,1.352.445,2.028.64a.539.539,0,0,1-.188,1.054Z" transform="translate(-860.406 -1906.699)" fill="#91b3fa"/>
        <path id="Path_13516" data-name="Path 13516" d="M622.314,1805.07a.539.539,0,0,1-.438-.29c-.33-.637-.653-1.295-.956-1.957a.539.539,0,1,1,.978-.45c.3.647.611,1.29.934,1.912a.539.539,0,0,1-.517.785Z" transform="translate(-604.766 -1675.967)" fill="#91b3fa"/>
        <path id="Path_13517" data-name="Path 13517" d="M579.081,1178.685a.537.537,0,0,1-.478-.387c-.3-1.058-.576-2.142-.8-3.222-.063-.3-.122-.593-.18-.89a.538.538,0,0,1,1.057-.2q.085.435.176.871c.224,1.053.489,2.112.787,3.147a.538.538,0,0,1-.369.666A.521.521,0,0,1,579.081,1178.685Zm-1.757-10.805a.539.539,0,0,1-.5-.515c-.057-1.4-.049-2.827.024-4.232a.538.538,0,0,1,.564-.51.547.547,0,0,1,.51.564c-.071,1.37-.079,2.76-.023,4.129a.539.539,0,0,1-.516.564.284.284,0,0,1-.062,0Zm.9-10.911a.581.581,0,0,1-.07-.009.539.539,0,0,1-.418-.637c.282-1.376.635-2.754,1.045-4.1a.541.541,0,0,1,1.034.314c-.4,1.317-.743,2.658-1.02,4A.538.538,0,0,1,578.221,1156.969Zm3.492-10.375a.523.523,0,0,1-.188-.051.537.537,0,0,1-.254-.718c.606-1.268,1.276-2.521,2-3.728a.538.538,0,0,1,.924.551c-.7,1.177-1.357,2.4-1.949,3.64a.539.539,0,0,1-.534.3Zm5.87-9.239a.539.539,0,0,1-.376-.878c.889-1.085,1.839-2.142,2.827-3.144a.539.539,0,0,1,.766.752c-.964.977-1.892,2.01-2.76,3.07a.54.54,0,0,1-.462.2Zm7.9-7.571a.539.539,0,0,1-.282-.968c1.123-.84,2.3-1.638,3.5-2.372a.539.539,0,0,1,.564.918c-1.171.717-2.319,1.5-3.416,2.316A.536.536,0,0,1,595.485,1129.784Zm9.5-5.44a.539.539,0,0,1-.169-1.034c1.293-.545,2.633-1.035,3.968-1.459a.539.539,0,0,1,.324,1.027c-1.308.414-2.611.892-3.874,1.425a.55.55,0,0,1-.252.045Zm10.525-3a.538.538,0,0,1-.044-1.068c1.387-.222,2.8-.382,4.2-.475a.538.538,0,0,1,.071,1.074c-1.367.094-2.749.247-4.1.464a.563.563,0,0,1-.129.009Zm15.084.137a.531.531,0,0,1-.055-.006c-1.352-.243-2.727-.424-4.094-.54a.538.538,0,0,1,.086-1.073h.006c1.4.119,2.808.3,4.193.552a.539.539,0,0,1-.135,1.067Z" transform="translate(-564.84 -1057.883)" fill="#91b3fa"/>
        <path id="Path_13518" data-name="Path 13518" d="M1216.39,1146.284a.537.537,0,0,1-.158-.036c-.658-.259-1.325-.505-2-.734a.539.539,0,0,1,.347-1.019c.687.234,1.375.486,2.045.752a.538.538,0,0,1-.238,1.034Z" transform="translate(-1142.028 -1080.239)" fill="#91b3fa"/>
        <path id="Path_13519" data-name="Path 13519" d="M744.438,1241.9a.542.542,0,0,0-.631.007l-5.346,3.9a28.8,28.8,0,0,0-9.122-2l-3.225-5.775a.543.543,0,0,0-.571-.27l-7.815,1.4a.545.545,0,0,0-.442.451l-1.022,6.533a28.819,28.819,0,0,0-7.864,5.043l-6.368-1.8a.544.544,0,0,0-.594.213l-4.536,6.517a.544.544,0,0,0,.007.631l3.9,5.346a28.851,28.851,0,0,0-2,9.122l-5.775,3.225a.543.543,0,0,0-.27.57l1.4,7.816a.545.545,0,0,0,.452.441l6.532,1.025a28.874,28.874,0,0,0,5.043,7.863l-1.8,6.373a.545.545,0,0,0,.213.594l6.514,4.531a.544.544,0,0,0,.632-.006l5.345-3.9a28.851,28.851,0,0,0,9.122,2l3.226,5.775a.544.544,0,0,0,.571.27l7.815-1.4a.544.544,0,0,0,.441-.451l1.02-6.536a28.819,28.819,0,0,0,7.863-5.043l6.368,1.8a.545.545,0,0,0,.594-.213l4.536-6.516a.543.543,0,0,0-.008-.631l-3.9-5.346a28.8,28.8,0,0,0,2-9.122l5.775-3.226a.544.544,0,0,0,.271-.571l-1.4-7.815a.542.542,0,0,0-.451-.441l-6.536-1.02a28.832,28.832,0,0,0-5.042-7.863l1.8-6.368a.544.544,0,0,0-.213-.594Z" transform="translate(-669.903 -1164.75)" fill="#91b3fa"/>
        <path id="Path_13520" data-name="Path 13520" d="M989.27,1543.1a7.925,7.925,0,0,1-2.2-.488,7.817,7.817,0,1,1,2.2.488Zm1.034-14.068a4.138,4.138,0,1,1-.006,0Z" transform="translate(-931.967 -1427.229)" fill="#bdd0fb"/>
        <path id="Path_13521" data-name="Path 13521" d="M870.362,1439.265a19.968,19.968,0,0,1-2-39.567c.137-.025.275-.048.412-.069a20.116,20.116,0,0,1,3.4-.245c.141,0,.282.006.423.01l-.056,1.615a18.434,18.434,0,0,0-3.9.282h0a18.22,18.22,0,0,0-11.366,6.944q-.235.31-.459.631a18.236,18.236,0,0,0-3.244,9.084,18.354,18.354,0,1,0,32.145-10.651l1.223-1.062a19.987,19.987,0,0,1-16.584,33.028Z" transform="translate(-814.09 -1311.176)" fill="#bdd0fb"/>
        <path id="Path_13522" data-name="Path 13522" d="M2085.5,1114.361a.715.715,0,0,1-.586-.39c-.423-.83-.889-1.649-1.385-2.435a.717.717,0,1,1,1.212-.765c.52.822,1.008,1.68,1.451,2.55a.717.717,0,0,1-.314.964.709.709,0,0,1-.378.076Z" transform="translate(-1929.788 -1049.403)" fill="#91b3fa"/>
        <path id="Path_13523" data-name="Path 13523" d="M1828.527,1270.118a.717.717,0,0,1,0-1.43,30.526,30.526,0,0,0,4.165-.59q.728-.154,1.439-.341a.717.717,0,1,1,.365,1.387q-.745.2-1.5.357a32.021,32.021,0,0,1-4.36.617A.648.648,0,0,1,1828.527,1270.118Zm14.378-4.7a.717.717,0,0,1-.33-1.317,30.175,30.175,0,0,0,4.492-3.469.717.717,0,1,1,.979,1.048,31.648,31.648,0,0,1-4.7,3.635.709.709,0,0,1-.439.1Zm10.428-10.955a.708.708,0,0,1-.3-.094.717.717,0,0,1-.27-.977,30.473,30.473,0,0,0,2.324-5.182.718.718,0,0,1,1.358.462,31.859,31.859,0,0,1-2.435,5.427.715.715,0,0,1-.677.36Zm4.017-14.591a.716.716,0,0,1-.663-.73,30.378,30.378,0,0,0-.415-5.664.718.718,0,0,1,1.411-.239,31.826,31.826,0,0,1,.435,5.932.718.718,0,0,1-.732.7Z" transform="translate(-1698.266 -1160.164)" fill="#91b3fa"/>
        <path id="Path_13524" data-name="Path 13524" d="M1701.919,1600.9a.7.7,0,0,1-.116-.018c-.949-.229-1.9-.5-2.821-.82a.717.717,0,0,1,.465-1.357c.878.3,1.787.564,2.688.782a.718.718,0,0,1-.22,1.411Z" transform="translate(-1581.081 -1491.725)" fill="#91b3fa"/>
        <path id="Path_13525" data-name="Path 13525" d="M1501.236,1414.883a.716.716,0,0,1-.584-.385c-.447-.862-.861-1.76-1.228-2.666a.717.717,0,1,1,1.329-.538c.351.864.746,1.72,1.173,2.544a.717.717,0,0,1-.689,1.045Z" transform="translate(-1400.661 -1321.562)" fill="#91b3fa"/>
        <path id="Path_13526" data-name="Path 13526" d="M1475.853,992.091a.719.719,0,0,1-.658-.653,31.759,31.759,0,0,1-.033-5.1q.028-.376.065-.743a.741.741,0,0,1,.784-.642.717.717,0,0,1,.642.784c-.024.235-.043.47-.061.707a30.269,30.269,0,0,0,.032,4.878.716.716,0,0,1-.652.777A.691.691,0,0,1,1475.853,992.091Zm2.314-14.7a.7.7,0,0,1-.226-.056.716.716,0,0,1-.382-.94,31.97,31.97,0,0,1,2.758-5.155.718.718,0,0,1,1.2.79,30.586,30.586,0,0,0-2.633,4.923.718.718,0,0,1-.711.438Zm8.891-11.929a.717.717,0,0,1-.4-1.269,31.657,31.657,0,0,1,4.841-3.283.717.717,0,1,1,.691,1.257,30.244,30.244,0,0,0-4.621,3.132A.713.713,0,0,1,1487.059,965.464Zm13.427-6.4a.717.717,0,0,1-.094-1.417,31.919,31.919,0,0,1,5.811-.652.7.7,0,0,1,.731.7.717.717,0,0,1-.7.731,30.579,30.579,0,0,0-5.548.623A.71.71,0,0,1,1500.486,959.063Z" transform="translate(-1378.65 -910.39)" fill="#91b3fa"/>
        <path id="Path_13527" data-name="Path 13527" d="M1899.97,972.324a.7.7,0,0,1-.211-.048c-.865-.342-1.756-.647-2.648-.907a.717.717,0,0,1,.4-1.377c.935.272,1.869.591,2.775.949a.718.718,0,0,1-.317,1.382Z" transform="translate(-1760.53 -922.141)" fill="#91b3fa"/>
        <path id="Path_13528" data-name="Path 13528" d="M1593.346,1044.771a.37.37,0,0,0-.432,0l-3.657,2.67a19.723,19.723,0,0,0-6.242-1.368l-2.206-3.95a.37.37,0,0,0-.39-.188l-5.346.957a.376.376,0,0,0-.3.309l-.7,4.471a19.719,19.719,0,0,0-5.379,3.45l-4.357-1.235a.371.371,0,0,0-.406.146l-3.1,4.458a.37.37,0,0,0,0,.432l2.67,3.657a19.719,19.719,0,0,0-1.368,6.242l-3.95,2.206a.376.376,0,0,0-.188.39l.958,5.346a.37.37,0,0,0,.308.3l4.471.7a19.73,19.73,0,0,0,3.45,5.379l-1.234,4.357a.376.376,0,0,0,.145.406l4.458,3.1a.376.376,0,0,0,.432,0l3.657-2.67a19.723,19.723,0,0,0,6.242,1.368l2.206,3.95a.376.376,0,0,0,.39.188l5.347-.958a.368.368,0,0,0,.3-.308l.7-4.472a19.685,19.685,0,0,0,5.379-3.449l4.357,1.234a.376.376,0,0,0,.407-.145l3.1-4.458a.376.376,0,0,0,0-.432l-2.668-3.652a19.726,19.726,0,0,0,1.368-6.242l3.95-2.206a.376.376,0,0,0,.188-.39l-.958-5.346a.371.371,0,0,0-.308-.3l-4.471-.7a19.72,19.72,0,0,0-3.45-5.379l1.235-4.357a.376.376,0,0,0-.146-.407Z" transform="translate(-1453.764 -987.339)" fill="#91b3fa"/>
        <path id="Path_13529" data-name="Path 13529" d="M1755.582,1245.807a5.9,5.9,0,0,1-2-11.255h0a5.9,5.9,0,1,1,2,11.255Zm-1.114-9.295a3.747,3.747,0,1,0,4.958,1.87A3.747,3.747,0,0,0,1754.468,1236.513Z" transform="translate(-1627.822 -1161.371)" fill="#bdd0fb"/>
        <path id="Path_13530" data-name="Path 13530" d="M1674.44,1175.333a14.184,14.184,0,0,1,1.585-28.319l-.076,2.15a12.108,12.108,0,0,0-2.555.182,11.955,11.955,0,0,0-7.507,4.629l-.082.111c-.055.076-.11.151-.164.229a11.95,11.95,0,0,0-2.126,5.956,12.035,12.035,0,1,0,21.074-6.983l1.621-1.411a14.193,14.193,0,0,1-11.777,23.459Z" transform="translate(-1547.39 -1082.533)" fill="#bdd0fb"/>
        <path id="Path_13531" data-name="Path 13531" d="M1244.772,2366.293c-18.641-4.11-4.6-31.763-3.937-32.833l-33.4,11.73s-2.983,16.075,17.8,30.87a29.846,29.846,0,0,0,15.6,5.686A26.307,26.307,0,0,1,1244.772,2366.293Z" transform="translate(-1136.041 -2157.414)" fill="url(#linear-gradient)"/>
        <path id="Path_13532" data-name="Path 13532" d="M1605.539,2651.61c-5.478-6.693-14.566-4.146-14.566-4.146-10.831,3.373-18.308,3.991-23.376,2.873a26.306,26.306,0,0,0-3.94,15.453c10.855.712,20.28-4.608,24.544-7.5a3.433,3.433,0,0,1,4.714.8c1.1,1.527,2.046,3.458,1.335,5-1.4,3.051,2.012,5.118,2.621,4.044s1.016-8.379,1.016-8.379,5.286,9.555,7.363,13.24,6.526,1.857,6.526,1.857S1611.016,2658.3,1605.539,2651.61Z" transform="translate(-1458.865 -2441.459)" fill="url(#linear-gradient-2)"/>
        <path id="Path_13533" data-name="Path 13533" d="M751.6,1874.862s23.454-18.477,84.972,7.805c0,0,6.653,7.335,4.387,16.282s-34.3,58.7-34.15,81.018c0,0-23.147,15.855-55.427,3.928C751.381,1983.9,736.848,1925.938,751.6,1874.862Z" transform="translate(-717.217 -1736.226)" fill="url(#linear-gradient-3)"/>
        <path id="Path_13534" data-name="Path 13534" d="M1259.123,1670l-8.417,19.724a5.431,5.431,0,0,0,.963,5.8c2.908,3.171,8.808,7.3,18.15,3.735a8.374,8.374,0,0,0,5.278-6.451l3.58-21.616Z" transform="translate(-1174.978 -1556.345)" fill="url(#linear-gradient-4)"/>
        <path id="Path_13535" data-name="Path 13535" d="M483.518,2009.648c-6.79-11.661,16.224-48.9,16.224-48.9l-15.652-25.127s-54.279,64.829-26.43,95.908a27.437,27.437,0,0,0,12.851,8.428C471.637,2023.722,478.327,2014.461,483.518,2009.648Z" transform="translate(-449.711 -1796.987)" fill="url(#linear-gradient-5)"/>
        <path id="Path_13536" data-name="Path 13536" d="M781.815,2237.058a.769.769,0,0,1-.882-.351c-6.942-11.924,15.285-48.148,16.234-49.69a.77.77,0,1,1,1.311.81c-.228.369-22.695,36.973-16.214,48.1a.767.767,0,0,1-.448,1.128Z" transform="translate(-748.57 -2024.411)" fill="url(#linear-gradient-6)"/>
        <path id="Path_13537" data-name="Path 13537" d="M730.2,2698.872c-4.165,1.155-8.039,3.225-12.225,4.291-4.646,1.182-9.239,2.572-13.918,3.625-7.279,1.639-16.856,3.518-23.249-1.485-.54-.422-4.874-5.324-5.18-5.147-11.608,6.706-13.865,22.377-13.865,29.98,21.159,11.573,54.449-10.961,63.411-17.547a7.014,7.014,0,0,1,5.114-1.3c3.668.5,9.986,1.178,13.318.429,4.875-1.1,13.139,15.8,20.758,9.894C764.361,2721.609,755.459,2691.868,730.2,2698.872Z" transform="translate(-641.819 -2487.495)" fill="url(#linear-gradient-7)"/>
        <path id="Path_13538" data-name="Path 13538" d="M1344.471,1373.56s5.315,17.209,4.834,25.883.752,14.468-9.4,15.092-18-5.275-21.584-14.365c0,0-5.649-14.019-3.447-19.257S1344.471,1373.56,1344.471,1373.56Z" transform="translate(-1233.049 -1287.783)" fill="url(#linear-gradient-8)"/>
        <path id="Path_13539" data-name="Path 13539" d="M1200.728,1224.637l1.259.14s-4-11.223.766-12.584,23.241-3.03,27.853-9c4.445-5.759,1.985-14.114-2.778-16.906a.674.674,0,0,0-.889.22l-.5.739a.681.681,0,0,1-1.234-.267h0a.678.678,0,0,0-1.192-.322c-1.411,1.787-4.984,4.54-13.824,5.172-12.545.9-21.227,4.965-22.374,13.438a.682.682,0,0,1-1.11.438c-.846-.658-2.269-1.076-4.392.339-3.692,2.462-3.132,9.979,3.591,16.859a.677.677,0,0,1-.152,1.081c-1.439.723-3.667,2.578,1.2,5.925,4.984,3.424,8.156,3.465,9.373,3.291a.681.681,0,0,0,.591-.642l.376-7.581a.682.682,0,0,1,.752-.643Z" transform="translate(-1111.363 -1118.041)" fill="url(#linear-gradient-9)"/>
        <path id="Path_13540" data-name="Path 13540" d="M1319.708,1528.01s-1.556-10.79-6.583-8.37,1.128,12.021,4.865,12.835Z" transform="translate(-1230.215 -1419.806)" fill="url(#linear-gradient-10)"/>
        <path id="Path_13541" data-name="Path 13541" d="M1190.164,2974.171h.2l85.4-1.316a3.637,3.637,0,1,0-.15-7.262l-85.4,1.321a3.706,3.706,0,0,0-3.747,3.687A3.744,3.744,0,0,0,1190.164,2974.171Z" transform="translate(-1117.178 -2730.1)" fill="url(#linear-gradient-11)"/>
        <path id="Path_13542" data-name="Path 13542" d="M1311.963,1597.289c-15.217,1.29-27.666-10.626-27.753-10.8V1583.8c.084.171,13.2,13.413,27.666,12.187Z" transform="translate(-1205.734 -1478.252)" fill="url(#linear-gradient-12)"/>
        <path id="Path_13543" data-name="Path 13543" d="M1571.88,1702.554a1.742,1.742,0,0,1-1.633,1.834h-4.354a1.743,1.743,0,0,1-1.634-1.834h0a1.743,1.743,0,0,1,1.634-1.834h4.354A1.742,1.742,0,0,1,1571.88,1702.554Z" transform="translate(-1459.448 -1584.177)" fill="url(#linear-gradient-13)"/>
        <path id="Path_13544" data-name="Path 13544" d="M1317.224,1248.516s-3.48-18.542,17.962-18.645a.25.25,0,0,0,.057-.494c-5.872-1.353-22.916-3.357-23.172,18.894C1315.334,1249.445,1317.224,1248.516,1317.224,1248.516Z" transform="translate(-1230.974 -1156.479)" fill="url(#linear-gradient-14)"/>
        <path id="Path_13545" data-name="Path 13545" d="M1253.495,1414.831c-8.365,1.693-7.335,12.276-7.335,12.276-.6,7.677,1.638,11.482,4.514,13.3a6.609,6.609,0,0,0,10.115-5.1c.154-2.09.331-4.076.486-4.781C1261.644,1428.808,1261.86,1413.132,1253.495,1414.831Z" transform="translate(-1171.173 -1325.056)" fill="url(#linear-gradient-15)"/>
        <path id="Path_13546" data-name="Path 13546" d="M1275.068,1443.957a3.8,3.8,0,0,0-4.148,2.239c-5,11.581,1.139,19.115,4.153,19.272,3.176.166,3.111-15.115,2.438-19.032A2.792,2.792,0,0,0,1275.068,1443.957Z" transform="translate(-1191.977 -1351.507)" fill="url(#linear-gradient-16)"/>
        <path id="Path_13547" data-name="Path 13547" d="M496.791,3046.623a4.8,4.8,0,0,1,.529-2.974,2.317,2.317,0,0,1,1.939-1.308H753.42a2.834,2.834,0,0,1,2.437,1.91,5.723,5.723,0,0,1,.188,3.969l-2.754,8.536c-.63,1.955-2,3.207-3.5,3.207H501c-1.4,0-2.6-1.421-2.866-3.385Z" transform="translate(-492.323 -2799.631)" fill="url(#linear-gradient-17)"/>
        <path id="Path_13548" data-name="Path 13548" d="M746.736,3057.242H497.947c-1.555,0-2.893-1.54-3.179-3.66l-1.346-9.952a5.13,5.13,0,0,1,.564-3.173,2.614,2.614,0,0,1,2.212-1.467H750.365a3.129,3.129,0,0,1,2.727,2.1,6.026,6.026,0,0,1,.2,4.194l-2.755,8.536C749.865,3055.9,748.375,3057.242,746.736,3057.242Zm-252.685-13.7,1.345,9.952c.244,1.8,1.317,3.115,2.555,3.115H746.736c1.36,0,2.616-1.173,3.2-2.988l2.754-8.537a5.369,5.369,0,0,0-.175-3.746,2.524,2.524,0,0,0-2.15-1.725H496.205a2.011,2.011,0,0,0-1.666,1.152,4.462,4.462,0,0,0-.49,2.774Z" transform="translate(-489.268 -2796.596)" fill="#91b3fa"/>
        <path id="Path_13549" data-name="Path 13549" d="M1832.26,1918.534c-1.435,11.731-7.894,59.392-9.742,73.01a3.127,3.127,0,0,0,3.2,3.544l109.556-3.135a3.131,3.131,0,0,0,2.967-2.451l17.043-76.751a3.132,3.132,0,0,0-3.241-3.8l-116.855,6.845A3.128,3.128,0,0,0,1832.26,1918.534Z" transform="translate(-1693.394 -1772.818)" fill="url(#linear-gradient-18)"/>
        <path id="Path_13550" data-name="Path 13550" d="M2238.693,2488.275l-16.193,45.958,37.651.8,3.135-46.48a3.612,3.612,0,0,0-3.843-3.847l-17.585,1.168A3.612,3.612,0,0,0,2238.693,2488.275Z" transform="translate(-2055.787 -2294.427)" fill="url(#linear-gradient-19)"/>
        <path id="Path_13551" data-name="Path 13551" d="M2256.187,2532.319l-.3-.007-38.086-.807,16.337-46.368a3.923,3.923,0,0,1,3.444-2.614l17.585-1.168a3.926,3.926,0,0,1,4.178,4.183Zm-37.5-1.425,36.915.782,3.115-46.18a3.3,3.3,0,0,0-3.509-3.512l-17.585,1.167a3.291,3.291,0,0,0-2.891,2.194Z" transform="translate(-2051.529 -2291.394)" fill="#91b3fa"/>
        <path id="Path_13552" data-name="Path 13552" d="M2059.249,2981.086h0a1.955,1.955,0,0,0,1.858,2.565h58.963a1.955,1.955,0,0,0,1.955-1.956v-2.531a1.955,1.955,0,0,0-2.04-1.953l-58.963,2.529A1.955,1.955,0,0,0,2059.249,2981.086Z" transform="translate(-1907.8 -2740.626)" fill="url(#linear-gradient-20)"/>
        <path id="Path_13553" data-name="Path 13553" d="M2117.089,2980.948h-58.963a2.271,2.271,0,0,1-.1-4.54l58.963-2.529a2.271,2.271,0,0,1,2.368,2.268v2.529A2.273,2.273,0,0,1,2117.089,2980.948Zm0-6.441h-.073l-58.963,2.529a1.648,1.648,0,0,0-1.489,1.128h0a1.641,1.641,0,0,0,1.559,2.153h58.963a1.642,1.642,0,0,0,1.64-1.641v-2.53a1.641,1.641,0,0,0-1.638-1.641Z" transform="translate(-1904.814 -2737.607)" fill="#91b3fa"/>
        <path id="Path_13554" data-name="Path 13554" d="M1901.307,2011.465l-.777-.1,5.383-42.451a5.528,5.528,0,0,1,5.148-4.82l100.98-6.1.048.781-100.982,6.1a4.746,4.746,0,0,0-4.42,4.138Z" transform="translate(-1764.095 -1817.262)" fill="#91b3fa"/>
        <rect id="Rectangle_18354" data-name="Rectangle 18354" width="9.25" height="0.782" transform="translate(134.046 217.013) rotate(-82.519)" fill="#91b3fa"/>
        <path id="Path_13555" data-name="Path 13555" d="M2280.61,761.339v23.635a5.259,5.259,0,0,0,5.011,5.253l29.557,1.388a5.259,5.259,0,0,0,5.505-5.252V761.339a5.259,5.259,0,0,0-5.259-5.259h-29.557a5.258,5.258,0,0,0-5.258,5.258Z" transform="translate(-2108.433 -728.37)" fill="url(#linear-gradient-21)"/>
        <path id="Path_13556" data-name="Path 13556" d="M2352.689,820.859l-1.154-4.265-3.367-1.835-.448.821,3.009,1.627,3.59,13.166.111.391h14.653a4.154,4.154,0,0,0,3.515-1.9l.658-.867a6.8,6.8,0,0,0,1.174-3.658v-3.479Zm20.678,3.479a5.83,5.83,0,0,1-.963,3.155l-.584.977a3.358,3.358,0,0,1-2.74,1.585h-13.926l-.763-2.814-1.445-5.322h20.422Z" transform="translate(-2169.232 -781.532)" fill="#fff"/>
        <path id="Path_13557" data-name="Path 13557" d="M2435.518,954.964a.526.526,0,0,1-.47.53h-17.19c-.26,0-.528-.407-.528-.667v-8.105c0-.094.053-.071.094-.142l.791,2.9h.174v4.952h16.655A.529.529,0,0,1,2435.518,954.964Z" transform="translate(-2232.295 -900.956)" fill="#fff"/>
        <rect id="Rectangle_18355" data-name="Rectangle 18355" width="0.627" height="8.823" transform="translate(193.679 39.799)" fill="#fff"/>
        <rect id="Rectangle_18356" data-name="Rectangle 18356" width="0.627" height="8.823" transform="translate(188.138 39.799)" fill="#fff"/>
        <rect id="Rectangle_18357" data-name="Rectangle 18357" width="0.627" height="8.823" transform="translate(199.091 39.799)" fill="#fff"/>
        <rect id="Rectangle_18358" data-name="Rectangle 18358" width="20.408" height="0.561" transform="translate(183.953 42.394)" fill="#fff"/>
        <rect id="Rectangle_18359" data-name="Rectangle 18359" width="19.005" height="0.561" transform="translate(184.844 45.465)" fill="#fff"/>
        <path id="Path_13558" data-name="Path 13558" d="M2426.818,1047.8a2.027,2.027,0,1,0,2.028,2.027A2.027,2.027,0,0,0,2426.818,1047.8Zm0,3.25a1.222,1.222,0,1,1,1.222-1.223A1.222,1.222,0,0,1,2426.818,1051.05Z" transform="translate(-2239.054 -992.657)" fill="#fff"/>
        <path id="Path_13559" data-name="Path 13559" d="M2560.738,1047.8a2.027,2.027,0,1,0,2.027,2.027A2.028,2.028,0,0,0,2560.738,1047.8Zm0,3.25a1.222,1.222,0,1,1,1.223-1.222,1.222,1.222,0,0,1-1.223,1.222Z" transform="translate(-2360.38 -992.657)" fill="#fff"/>
        <path id="Path_13560" data-name="Path 13560" d="M2325.824,814.292a.954.954,0,0,1-.953.953H2321.7a.954.954,0,0,1-.953-.953h0a.953.953,0,0,1,.953-.952h3.168A.953.953,0,0,1,2325.824,814.292Z" transform="translate(-2144.798 -780.245)" fill="#fff"/>
        <path id="Path_13561" data-name="Path 13561" d="M1599.28,467.062v25.351a5.642,5.642,0,0,0,5.376,5.634l31.7,1.49a5.642,5.642,0,0,0,5.906-5.634V467.062a5.642,5.642,0,0,0-5.642-5.642h-31.7A5.642,5.642,0,0,0,1599.28,467.062Z" transform="translate(-1491.175 -461.42)" fill="url(#linear-gradient-22)"/>
        <path id="Path_13562" data-name="Path 13562" d="M1705.448,574.977H1683.6a2.972,2.972,0,0,1-2.969-2.969V556.03a2.972,2.972,0,0,1,2.969-2.97h21.849a2.974,2.974,0,0,1,2.97,2.97v15.978A2.973,2.973,0,0,1,1705.448,574.977Zm-21.849-19.96a1.014,1.014,0,0,0-1.012,1.013v15.978a1.014,1.014,0,0,0,1.012,1.013h21.849a1.015,1.015,0,0,0,1.013-1.013V556.03a1.014,1.014,0,0,0-1.013-1.013Z" transform="translate(-1564.875 -544.442)" fill="#fff"/>
        <path id="Path_13563" data-name="Path 13563" d="M1701.188,570.835a.977.977,0,0,1-.564-.181l-12.245-8.682a.978.978,0,0,1,1.129-1.6l11.677,8.276,11.525-8.182a.98.98,0,0,1,1.133,1.6l-12.088,8.588A.977.977,0,0,1,1701.188,570.835Z" transform="translate(-1571.52 -550.906)" fill="#fff"/>
        <path id="Path_13564" data-name="Path 13564" d="M1690.66,632.6l-.282-1.936.132.97-.819-.533c.227-.365,4.642-8.087,7.555-13.19a.978.978,0,1,1,1.7.973s-1.889,3.308-3.781,6.618c-.947,1.655-1.894,3.31-2.607,4.552C1691.13,632.527,1691.13,632.527,1690.66,632.6Z" transform="translate(-1573.083 -602.75)" fill="#fff"/>
        <path id="Path_13565" data-name="Path 13565" d="M1875.349,632.586c-.47-.075-.47-.075-1.894-2.549-.713-1.241-1.66-2.9-2.607-4.552-1.892-3.309-3.781-6.618-3.781-6.618a.979.979,0,0,1,1.7-.97c2.915,5.1,7.327,12.825,7.555,13.19l-.82.533Z" transform="translate(-1733.663 -602.735)" fill="#fff"/>
        <path id="Path_13566" data-name="Path 13566" d="M2670.86,1310.3v22.3a4.961,4.961,0,0,0,4.729,4.956l27.886,1.31a4.962,4.962,0,0,0,5.195-4.956V1310.3a4.962,4.962,0,0,0-4.962-4.962h-27.886A4.962,4.962,0,0,0,2670.86,1310.3Z" transform="translate(-2461.984 -1225.978)" fill="url(#linear-gradient-23)"/>
        <path id="Path_13567" data-name="Path 13567" d="M2724.127,1353.8a1.531,1.531,0,0,1-1.057-.376l-.807-.74a1.689,1.689,0,0,1-.456-1.551,3.4,3.4,0,0,1,.884-1.749l.538-.587c.039-.041.077-.082.117-.121l10.062-10.062a.248.248,0,0,1,.35.351l-10.062,10.062c-.035.035-.069.07-.1.106l-.539.587a2.918,2.918,0,0,0-.76,1.489,1.217,1.217,0,0,0,.3,1.112l.807.74c.564.52,1.735.209,2.55-.681l.538-.587a1.257,1.257,0,0,0,.094-.11l8.032-9.553a.247.247,0,1,1,.376.319l-8.022,9.548c-.037.042-.073.085-.112.127l-.538.586A3.115,3.115,0,0,1,2724.127,1353.8Zm.244-1.578a1.025,1.025,0,0,1-.71-.256c-.564-.513-.376-1.6.428-2.47a2.872,2.872,0,0,1,1.24-.821,1.076,1.076,0,0,1,1.466,1.346,2.875,2.875,0,0,1-.711,1.306A2.492,2.492,0,0,1,2724.37,1352.218Zm1.435-3.127a1.178,1.178,0,0,0-.334.054,2.373,2.373,0,0,0-1.019.682c-.581.634-.8,1.461-.458,1.77.3.276,1.082.094,1.724-.608h0a2.363,2.363,0,0,0,.592-1.072.757.757,0,0,0-.133-.7.536.536,0,0,0-.372-.129Zm12.524-10.748a.248.248,0,0,1-.188-.407l2.9-3.447.183.111a5.238,5.238,0,0,0,6.735-.934,5.858,5.858,0,0,0,1.53-4.566.542.542,0,0,0-.376-.47.564.564,0,0,0-.6.155l-3.122,3.4a1.317,1.317,0,0,1-1.076.418l-1.68-.144a1.309,1.309,0,0,1-1.176-1.08l-.289-1.661a1.317,1.317,0,0,1,.324-1.108l3.122-3.4a.564.564,0,0,0,.1-.612.543.543,0,0,0-.5-.339,5.87,5.87,0,0,0-4.42,1.918,5.238,5.238,0,0,0-.349,6.791l.125.172-3.76,3.756a.248.248,0,0,1-.35-.351l3.456-3.456a5.708,5.708,0,0,1,.507-7.241,6.338,6.338,0,0,1,4.8-2.078,1.04,1.04,0,0,1,.945.639,1.057,1.057,0,0,1-.194,1.142l-3.122,3.4a.816.816,0,0,0-.2.688l.289,1.661a.813.813,0,0,0,.731.671l1.679.145a.817.817,0,0,0,.669-.26l3.122-3.4a1.057,1.057,0,0,1,1.122-.291,1.04,1.04,0,0,1,.718.886,6.356,6.356,0,0,1-1.657,4.953,5.713,5.713,0,0,1-7.175,1.129l-2.626,3.123A.246.246,0,0,1,2738.33,1338.344Z" transform="translate(-2508.115 -1242.676)" fill="#fff"/>
        <path id="Path_13568" data-name="Path 13568" d="M2868.228,1492.207a1.771,1.771,0,0,1-.2-.007,2.285,2.285,0,0,1-1.589-.838l-9.333-11.428a1.169,1.169,0,0,1,.137-1.628l1.841-1.606a1.169,1.169,0,0,1,1.632.085l10.056,10.8a2.3,2.3,0,0,1-.171,3.3l-.865.752A2.283,2.283,0,0,1,2868.228,1492.207Zm-8.709-15.01-1.84,1.606a.511.511,0,0,0-.06.713l9.333,11.429a1.641,1.641,0,0,0,2.351.2l.866-.752a1.641,1.641,0,0,0,.122-2.351l-10.057-10.806A.513.513,0,0,0,2859.519,1477.2Z" transform="translate(-2630.474 -1380.959)" fill="#fff"/>
        <path id="Path_13569" data-name="Path 13569" d="M2748.694,1351.317l-8.1-9.475a.593.593,0,0,1-.345-.119l-2.429-1.864a.55.55,0,0,1-.158-.188l-1.077-2.131a.68.68,0,0,1,.2-.81l.607-.529a.68.68,0,0,1,.829-.085l1.967,1.358a.557.557,0,0,1,.161.17l1.572,2.608a.6.6,0,0,1,.061.465l8.346,9.375Zm-7.9-10,7.975,9.326.828-.624-8.205-9.216.085-.153a.15.15,0,0,0,.017-.141l-1.572-2.607a.069.069,0,0,0-.017-.019l-1.969-1.358a.2.2,0,0,0-.222.05l-.607.529a.2.2,0,0,0-.079.213l1.077,2.131a.052.052,0,0,0,.017.021l2.43,1.864a.129.129,0,0,0,.1.013Z" transform="translate(-2521.473 -1253.766)" fill="#fff"/>
        <path id="Path_13570" data-name="Path 13570" d="M875.09,635.093v26.665a5.933,5.933,0,0,0,5.654,5.924l33.346,1.567a5.933,5.933,0,0,0,6.207-5.924V635.093a5.933,5.933,0,0,0-5.933-5.933H881.022a5.933,5.933,0,0,0-5.932,5.932Z" transform="translate(-835.088 -613.386)" fill="url(#linear-gradient-24)"/>
        <path id="Path_13571" data-name="Path 13571" d="M1057.337,741.292a40.407,40.407,0,0,1-.581,7.079c-.105.584-.228,1.165-.376,1.74a16.528,16.528,0,0,1-.521,1.7,8.1,8.1,0,0,1-.776,1.605,3.225,3.225,0,0,1-.583.682,1.654,1.654,0,0,1-.382.247,1.139,1.139,0,0,1-.446.105,1.117,1.117,0,0,1-.45-.084,1.564,1.564,0,0,1-.39-.233,3.02,3.02,0,0,1-.6-.672,7.775,7.775,0,0,1-.788-1.6,16.564,16.564,0,0,1-.527-1.7c-.147-.575-.27-1.155-.376-1.738-.212-1.167-.356-2.345-.454-3.526s-.145-2.367-.151-3.553c0-.592.013-1.185.035-1.777s.054-1.184.094-1.775c.087-1.182.218-2.361.412-3.53q.141-.877.347-1.745a16.638,16.638,0,0,1,.493-1.709c.1-.282.208-.557.331-.827a6.1,6.1,0,0,1,.424-.784,2.939,2.939,0,0,1,.582-.676,1.486,1.486,0,0,1,.386-.231,1.082,1.082,0,0,1,.443-.079,1.165,1.165,0,0,1,.437.1,1.715,1.715,0,0,1,.381.239,3.281,3.281,0,0,1,.6.664,8.016,8.016,0,0,1,.815,1.581,16.148,16.148,0,0,1,.56,1.688c.158.572.291,1.15.406,1.731A36.786,36.786,0,0,1,1057.337,741.292Zm-.175,0c0-1.181-.042-2.362-.14-3.539a34.428,34.428,0,0,0-.46-3.51c-.109-.58-.235-1.157-.385-1.727a16.155,16.155,0,0,0-.538-1.683,7.905,7.905,0,0,0-.791-1.573,3.179,3.179,0,0,0-.576-.658,1.648,1.648,0,0,0-.365-.235,1.092,1.092,0,0,0-.417-.1,1.025,1.025,0,0,0-.42.079,1.421,1.421,0,0,0-.368.228,2.855,2.855,0,0,0-.564.667,6.026,6.026,0,0,0-.41.779c-.12.269-.224.544-.319.824a16.62,16.62,0,0,0-.47,1.7c-.129.576-.236,1.156-.326,1.74-.181,1.166-.3,2.343-.376,3.521s-.1,2.36-.1,3.542.037,2.361.124,3.539.223,2.351.425,3.514c.1.581.219,1.159.361,1.732a16.45,16.45,0,0,0,.509,1.693,7.741,7.741,0,0,0,.764,1.582,2.95,2.95,0,0,0,.57.654,1.443,1.443,0,0,0,.365.222,1,1,0,0,0,.412.079,1.044,1.044,0,0,0,.408-.1,1.552,1.552,0,0,0,.357-.236,3.1,3.1,0,0,0,.559-.665,7.971,7.971,0,0,0,.752-1.587,16.5,16.5,0,0,0,.5-1.693c.14-.573.257-1.151.357-1.732.2-1.163.334-2.338.422-3.515S1057.162,742.474,1057.162,741.292Z" transform="translate(-993.495 -703.124)" fill="#fff"/>
        <path id="Path_13572" data-name="Path 13572" d="M1050.362,751.564a1.465,1.465,0,0,1-.544-.109,1.85,1.85,0,0,1-.476-.282,3.29,3.29,0,0,1-.666-.752,8.079,8.079,0,0,1-.826-1.671,16.917,16.917,0,0,1-.538-1.737c-.142-.555-.266-1.128-.382-1.763-.2-1.118-.353-2.282-.458-3.559-.094-1.161-.147-2.365-.152-3.579,0-.635.015-1.262.034-1.787.023-.6.055-1.2.094-1.787.094-1.284.231-2.445.416-3.562.105-.634.221-1.212.352-1.767a17.288,17.288,0,0,1,.5-1.743c.113-.317.225-.6.343-.856a6.44,6.44,0,0,1,.448-.828,3.243,3.243,0,0,1,.658-.752,1.834,1.834,0,0,1,.476-.282,1.442,1.442,0,0,1,.582-.1,1.518,1.518,0,0,1,.564.132,2.028,2.028,0,0,1,.457.282,3.535,3.535,0,0,1,.658.734,8.283,8.283,0,0,1,.854,1.649,16.715,16.715,0,0,1,.572,1.726c.153.556.288,1.128.412,1.756a37.505,37.505,0,0,1,.658,7.139h0a40.479,40.479,0,0,1-.586,7.14c-.115.631-.238,1.208-.376,1.764a16.892,16.892,0,0,1-.531,1.738,8.34,8.34,0,0,1-.812,1.673,3.478,3.478,0,0,1-.648.752,2.02,2.02,0,0,1-.462.3,1.491,1.491,0,0,1-.582.135Zm-.179-26.188a.671.671,0,0,0-.26.054,1.093,1.093,0,0,0-.282.174,2.472,2.472,0,0,0-.491.587,5.746,5.746,0,0,0-.385.734c-.106.239-.207.5-.308.795a16.3,16.3,0,0,0-.461,1.668c-.121.539-.227,1.1-.323,1.716-.168,1.092-.289,2.233-.368,3.49-.069,1.074-.1,2.225-.094,3.519,0,1.194.039,2.375.123,3.514.094,1.249.231,2.388.42,3.479.107.611.223,1.17.356,1.708a15.92,15.92,0,0,0,.5,1.655,7.375,7.375,0,0,0,.729,1.511,2.537,2.537,0,0,0,.5.575,1.071,1.071,0,0,0,.276.17.724.724,0,0,0,.272.054.706.706,0,0,0,.276-.069,1.24,1.24,0,0,0,.276-.188,2.707,2.707,0,0,0,.494-.591,7.563,7.563,0,0,0,.719-1.517,16.5,16.5,0,0,0,.492-1.658c.131-.535.246-1.094.352-1.709.188-1.082.323-2.221.418-3.479.087-1.136.131-2.318.13-3.513h0c0-1.192-.044-2.372-.139-3.51a33.425,33.425,0,0,0-.455-3.474c-.113-.606-.237-1.162-.376-1.7a15.826,15.826,0,0,0-.526-1.648,7.53,7.53,0,0,0-.752-1.5,2.833,2.833,0,0,0-.512-.586,1.316,1.316,0,0,0-.287-.188.725.725,0,0,0-.282-.071Z" transform="translate(-990.215 -699.889)" fill="#fff"/>
        <path id="Path_13573" data-name="Path 13573" d="M998.656,740.6a17.381,17.381,0,0,1-.61,4.524,14.606,14.606,0,0,1-1.881,4.148,11.894,11.894,0,0,1-1.441,1.771,10.062,10.062,0,0,1-1.773,1.432,8.53,8.53,0,0,1-2.069.95,7.721,7.721,0,0,1-4.5,0,8.535,8.535,0,0,1-2.069-.948,10.162,10.162,0,0,1-1.776-1.431,11.914,11.914,0,0,1-1.443-1.771,14.591,14.591,0,0,1-1.89-4.15,16.407,16.407,0,0,1-.458-2.243,16.943,16.943,0,0,1,0-4.568,16.41,16.41,0,0,1,.46-2.243,14.581,14.581,0,0,1,1.893-4.147,11.885,11.885,0,0,1,1.443-1.768,10.091,10.091,0,0,1,1.775-1.429,8.571,8.571,0,0,1,2.069-.94,7.655,7.655,0,0,1,4.49,0,8.56,8.56,0,0,1,2.069.946,10.078,10.078,0,0,1,1.766,1.43,11.947,11.947,0,0,1,1.441,1.768,14.591,14.591,0,0,1,1.888,4.146,17.367,17.367,0,0,1,.613,4.523Zm-.2,0a17.162,17.162,0,0,0-.586-4.475,14.55,14.55,0,0,0-1.825-4.12,11.8,11.8,0,0,0-1.411-1.765,9.827,9.827,0,0,0-1.742-1.433,8.38,8.38,0,0,0-2.034-.948,7.468,7.468,0,0,0-4.446,0,8.416,8.416,0,0,0-2.041.949,9.893,9.893,0,0,0-1.738,1.434,11.77,11.77,0,0,0-1.4,1.766,14.5,14.5,0,0,0-1.821,4.119,16.575,16.575,0,0,0-.438,2.217,17.294,17.294,0,0,0,0,4.514,16.454,16.454,0,0,0,.439,2.216,14.493,14.493,0,0,0,1.823,4.116,11.756,11.756,0,0,0,1.4,1.763,9.79,9.79,0,0,0,1.732,1.429,8.389,8.389,0,0,0,2.039.946,7.4,7.4,0,0,0,4.439,0,8.416,8.416,0,0,0,2.041-.94,9.8,9.8,0,0,0,1.741-1.43,11.887,11.887,0,0,0,1.411-1.763,14.539,14.539,0,0,0,1.828-4.117A17.2,17.2,0,0,0,998.456,740.6Z" transform="translate(-928.859 -702.433)" fill="#fff"/>
        <path id="Path_13574" data-name="Path 13574" d="M985.247,750.76a8.131,8.131,0,0,1-2.351-.349,8.894,8.894,0,0,1-2.154-.987,10.468,10.468,0,0,1-1.834-1.478,12.4,12.4,0,0,1-1.485-1.822,14.9,14.9,0,0,1-1.935-4.248,16.944,16.944,0,0,1-.47-2.292,17.272,17.272,0,0,1,0-4.661,16.8,16.8,0,0,1,.47-2.29,14.935,14.935,0,0,1,1.941-4.249,12.369,12.369,0,0,1,1.488-1.82,10.465,10.465,0,0,1,1.836-1.477,8.958,8.958,0,0,1,2.153-.983,8,8,0,0,1,4.689,0,8.871,8.871,0,0,1,2.147.988,10.384,10.384,0,0,1,1.833,1.478,12.284,12.284,0,0,1,1.482,1.82,14.891,14.891,0,0,1,1.933,4.244,17.708,17.708,0,0,1,.627,4.616h0a17.655,17.655,0,0,1-.623,4.615,14.891,14.891,0,0,1-1.932,4.249,12.207,12.207,0,0,1-1.482,1.822,10.419,10.419,0,0,1-1.833,1.481,8.859,8.859,0,0,1-2.153.987A8.113,8.113,0,0,1,985.247,750.76Zm0-26.237a7.343,7.343,0,0,0-2.122.324,8.061,8.061,0,0,0-1.957.91,9.531,9.531,0,0,0-1.677,1.384,11.5,11.5,0,0,0-1.364,1.714,14.118,14.118,0,0,0-1.776,4.021,16.191,16.191,0,0,0-.429,2.169,16.939,16.939,0,0,0,0,4.421,16.293,16.293,0,0,0,.43,2.169,14.14,14.14,0,0,0,1.778,4.017,11.547,11.547,0,0,0,1.364,1.712,9.551,9.551,0,0,0,1.678,1.377,8.122,8.122,0,0,0,1.954.906,7.064,7.064,0,0,0,4.238,0,8.077,8.077,0,0,0,1.958-.906,9.529,9.529,0,0,0,1.678-1.38,11.438,11.438,0,0,0,1.366-1.712,14.142,14.142,0,0,0,1.787-4.019,16.993,16.993,0,0,0,0-8.766,14.162,14.162,0,0,0-1.781-4.022,11.507,11.507,0,0,0-1.366-1.713,9.471,9.471,0,0,0-1.68-1.379,8.038,8.038,0,0,0-1.957-.909,7.36,7.36,0,0,0-2.124-.324Z" transform="translate(-925.475 -699.085)" fill="#fff"/>
        <path id="Path_13575" data-name="Path 13575" d="M960.773,811.43l3.009-.024,3.009-.014,6.019-.011,6.019.012,3.009.015,3.009.026a.009.009,0,0,1,.009.009s0,.008-.009.008l-3.009.026-3.009.015-6.019.012-6.019-.011-3.009-.013-3.009-.024a.02.02,0,0,1-.013-.007C960.76,811.438,960.766,811.43,960.773,811.43Z" transform="translate(-912.701 -778.47)" fill="#fff"/>
        <path id="Path_13576" data-name="Path 13576" d="M969.51,808.525l-9.034-.025-3.155-.026-.211-.211v-.154l.008-.338.346-.013,6.022-.038,6.023-.011,9.035.027,3.353.029.009.7-.354.008-6.02.042Z" transform="translate(-909.394 -775.145)" fill="#fff"/>
        <path id="Path_13577" data-name="Path 13577" d="M997.877,757.635c.713-.011,1.426-.016,2.138-.024l2.138-.013c.713-.007,1.426-.006,2.138-.008h2.138l4.275.012,2.138.015c.713.008,1.425.014,2.138.026h.008c0,.01,0,.014-.008.014-.713.012-1.425.017-2.138.026l-2.138.015-4.275.012h-2.138c-.713,0-1.426,0-2.138-.008l-2.138-.014c-.712-.008-1.425-.013-2.138-.024a.012.012,0,0,1-.009,0,.012.012,0,0,1,0-.009.013.013,0,0,1,.012-.017Z" transform="translate(-946.316 -729.738)" fill="#fff"/>
        <path id="Path_13578" data-name="Path 13578" d="M1003.178,754.786h-2.693c-.529,0-1.057,0-1.586-.007l-2.851-.021c-.476,0-.952-.009-1.427-.017l-.339-.006-.013-.7.352-.013c.46-.007.921-.011,1.381-.016l2.9-.023c.5,0,1,0,1.5-.006h2.771l7.194.036c.454,0,.908.009,1.363.018l.351.006-.016.694-.34.008c-.47.008-.946.013-1.422.018l-2.851.023Z" transform="translate(-943.06 -726.468)" fill="#fff"/>
        <path id="Path_13579" data-name="Path 13579" d="M949.643,865.26l3.273-.024,3.273-.014,6.545-.011,6.544.012,3.273.016,3.273.026a.009.009,0,0,1,.008.009.008.008,0,0,1-.008.008l-3.273.026-3.273.015-6.544.013-6.545-.011-3.273-.014-3.273-.024a.013.013,0,1,1,0-.026Z" transform="translate(-902.618 -827.238)" fill="#fff"/>
        <path id="Path_13580" data-name="Path 13580" d="M959.427,862.356l-9.819-.025-3.615-.027-.013-.7.354-.013,6.546-.039,6.545-.011,9.82.027,3.417.027.208.213-.013.486-.341.009-6.543.041Z" transform="translate(-899.311 -823.913)" fill="#fff"/>
        <path id="Path_13581" data-name="Path 13581" d="M960.773,919.1l3.009-.024,3.009-.014,6.019-.01,6.019.012,3.009.015,3.009.026a.014.014,0,0,1,.009,0c0,.01,0,.014-.009.014l-3.009.026-3.009.015-6.019.012-6.019-.011-3.009-.014-3.009-.025a.013.013,0,1,1,0-.026Z" transform="translate(-912.701 -876.015)" fill="#fff"/>
        <path id="Path_13582" data-name="Path 13582" d="M969.51,916.186l-9.034-.025-3.155-.025-.211-.211v-.154l.008-.338.346-.013,6.023-.039,6.022-.011,9.035.027,3.353.03.009.7-.354.009-6.02.041Z" transform="translate(-909.394 -872.681)" fill="#fff"/>
        <path id="Path_13583" data-name="Path 13583" d="M1019.268,973.094h-17.1a.047.047,0,0,1,0-.094h17.1a.047.047,0,0,1,0,.094Z" transform="translate(-950.172 -924.891)" fill="#fff"/>
        <path id="Path_13584" data-name="Path 13584" d="M1016.137,970.163h-17.1a.392.392,0,0,1,0-.783h17.1a.392.392,0,0,1,0,.783Z" transform="translate(-947.041 -921.612)" fill="#fff"/>
        <path id="Path_13585" data-name="Path 13585" d="M953.523,745.817a13.909,13.909,0,1,1,14.064-13.909A14,14,0,0,1,953.523,745.817Zm0-26.584a12.676,12.676,0,1,0,12.829,12.675A12.767,12.767,0,0,0,953.523,719.233Z" transform="translate(-893.404 -693.871)" fill="#fff"/>
        <path id="Path_13586" data-name="Path 13586" d="M1193.22,672.61h-4.038v-1.046l1.337-1.89a13.789,13.789,0,0,0,.752-1.161,3.517,3.517,0,0,0,.3-.727,2.65,2.65,0,0,0,.094-.718.967.967,0,0,0-.188-.649.643.643,0,0,0-.492-.224.967.967,0,0,0-.511.144,2.913,2.913,0,0,0-.576.521l-.782-.825a3.459,3.459,0,0,1,1-.839,2.247,2.247,0,0,1,1-.227,1.878,1.878,0,0,1,1.424.535,2.064,2.064,0,0,1,.512,1.489,3.485,3.485,0,0,1-.094.819,3.8,3.8,0,0,1-.282.775,6.568,6.568,0,0,1-.47.809q-.282.42-1.463,1.924v.047h2.468Z" transform="translate(-1119.586 -645.827)" fill="#fff"/>
        <path id="Path_13587" data-name="Path 13587" d="M1244.227,672.1h-.763v1.581h-1.317V672.1h-2.457V670.96l2.277-4.81h1.5v4.789h.763Zm-2.081-1.159v-1.586l.025-.7.037-.67h-.043a8.846,8.846,0,0,1-.391,1.015l-.906,1.942Z" transform="translate(-1165.401 -646.897)" fill="#fff"/>
      </g>
    </g>
  </g>
</svg>
