<svg xmlns="http://www.w3.org/2000/svg" width="224" height="224" viewBox="0 0 224 224">
  <g id="Latest_technology-02-02" data-name="Latest technology-02-02" transform="translate(-84 -84.71)">
    <circle id="Ellipse_331" data-name="Ellipse 331" cx="112" cy="112" r="112" transform="translate(84 84.71)" fill="#19707d"/>
    <path id="Path_15188" data-name="Path 15188" d="M171.18,200.9H209.4c2.49,0,2.27-.48,2.26,2.31v35.74a39.809,39.809,0,0,1-.48,6.26c-2.62,16.44-17.38,29.4-34,29.74-13.5.27-24-5.36-31.47-16.52a34.25,34.25,0,0,1-5.7-19c-.05-4.28-.05-8.57-.07-12.85V203.99a12,12,0,0,0,.08-1.79c-.09-1,.31-1.32,1.32-1.3,2.7.05,5.39,0,8.09,0Q160.26,200.89,171.18,200.9Zm-17.06,17c-.36,6.36-.68,12.79.16,19.12,1.39,10.47,10.42,18.18,21.14,18.51a22,22,0,0,0,21.81-17.31,19.27,19.27,0,0,0,.49-4.07V219.24a9.44,9.44,0,0,0-8.708-9.41c-.462,0-.932-.12-1.392-.12H164a6.507,6.507,0,0,0-.76.07c-4.54.05-8.87,3.6-9.12,8.13Z" fill="#eaecf0"/>
    <path id="Path_15189" data-name="Path 15189" d="M147.08,157.2a32.86,32.86,0,0,1,9.49-8.82,13.36,13.36,0,0,0,5.37,2.25,15.465,15.465,0,0,0,1.66.13h22.33c3.26,0,6.4-.23,9-2.46.58.36,1.18.68,1.73,1.07a38,38,0,0,1,9.3,9.68l.24.2h0a65.433,65.433,0,0,1,3.32,6.91,36.87,36.87,0,0,1,2.17,11.28v16.92c0,1.13-.31,1.49-1.44,1.45-2.09-.09-4.19,0-6.28,0H141.65c-1.66,0-1.66,0-1.66-1.7l-.06-16.56h0c.18-.06.19-.18.13-.33a36.12,36.12,0,0,1,5.52-17.94h0a.24.24,0,0,0,.18-.16l.33-.38C146.43,158.24,147,157.86,147.08,157.2Zm13.63.53c-4.13,0-6.75,2.62-6.75,6.72v15.28c0,4.09,2.66,6.73,6.77,6.73H191a6.34,6.34,0,0,0,6.7-6.68v-15.4a6.31,6.31,0,0,0-6.7-6.65H160.71Z" fill="#eaecf0"/>
    <path id="Path_15190" data-name="Path 15190" d="M225.25,216.4c8.44-3,16.3-7,22.1-14.08a31.88,31.88,0,0,0,6.86-18.21,59.93,59.93,0,0,0-.68-14.59c-.18-1,.13-1.32,1.17-1.32h23.38c1.3,0,2.4-.26,2.7-1.76v-2l-.29-.34c-.51,0-1,.07-1.54.07H220.87c-2.09.07-2.56.78-1.78,2.8a2.22,2.22,0,0,0,2.4,1.31h16.94a47.462,47.462,0,0,1,5.92.25c-1.18.72-2.37,1.42-3.55,2.15a39.61,39.61,0,0,0-14.95,16.66,84.235,84.235,0,0,0-5.58,13.35,1,1,0,0,0,.45.59,11.89,11.89,0,0,1,5.33,13.29C225.85,215.17,225.1,215.59,225.25,216.4Z" fill="#eaecf0"/>
    <path id="Path_15191" data-name="Path 15191" d="M277.43,162.65c.5-.27.33-.74.32-1.14a27.84,27.84,0,0,0-23.28-26.45,2.72,2.72,0,0,1-2.25-1.32,3,3,0,0,0-5,.29c-.14.26-.26.53-.4.79a19.35,19.35,0,0,0-5.26,4.52,25.929,25.929,0,0,0-4.91,9A42.12,42.12,0,0,0,235,160.09c0,.82.45,1.61,0,2.49h40.62C276.23,162.58,276.83,162.63,277.43,162.65Z" fill="#eaecf0"/>
    <path id="Path_15192" data-name="Path 15192" d="M127.55,218.58a32.5,32.5,0,0,0-6.12,6.86c-3.9,5.31-6.25,11.18-5.94,17.89A32.29,32.29,0,0,0,119,256a63.179,63.179,0,0,0,5.39,8.87c.53.75.84.84,1.52.14,5.41-5.48,9.46-11.74,10.7-19.46a58.661,58.661,0,0,0,.09-16.37c-.14-.88-.78-1.06-1.54-1.17C131.36,227.45,127,222.79,127.55,218.58Z" fill="#eaecf0"/>
    <path id="Path_15193" data-name="Path 15193" d="M277.43,162.65c-.6,0-1.2-.07-1.79-.07H235c.42-.88-.05-1.67,0-2.49a42.119,42.119,0,0,1,1.63-11.74,25.929,25.929,0,0,1,4.91-9,19.35,19.35,0,0,1,5.26-4.52,28,28,0,0,0-24.91,26.77c0,1,.28,1.24,1.23,1.24h53.32a1.81,1.81,0,0,0,.99-.19Z" fill="#c5c7cb"/>
    <path id="Path_15194" data-name="Path 15194" d="M204,195.79H148.88c.08,1.7-.15,3.42.53,5.05h54.04C204.08,199.24,203.82,197.49,204,195.79Z" fill="#c5c7cb"/>
    <path id="Path_15195" data-name="Path 15195" d="M156.57,148.38a13.36,13.36,0,0,0,5.37,2.25,15.462,15.462,0,0,0,1.66.13h22.33c3.26,0,6.4-.23,9-2.46a29.94,29.94,0,0,0-13.34-5.2,35.06,35.06,0,0,0-17.4,1.5A34.631,34.631,0,0,0,156.57,148.38Z" fill="#c5c7cb"/>
    <path id="Path_15196" data-name="Path 15196" d="M211.64,203.22v23.67a20.62,20.62,0,0,0,4.67-3,13.31,13.31,0,0,0,3.44-6.26A12.34,12.34,0,0,0,216,206.36a2,2,0,0,1-.27-.55C214.35,205,212.76,204.49,211.64,203.22Z" fill="#c5c7cb"/>
    <path id="Path_15197" data-name="Path 15197" d="M139.9,226.56V203.97c-3.71,1.07-5.93,3.68-7.42,7.11-.6,1.38-.41,2.84-.71,4.24a12,12,0,0,0,4.16,9c.3.27.77.42.78.94C137.87,225.42,138.67,226.51,139.9,226.56Z" fill="#c5c7cb"/>
    <path id="Path_15198" data-name="Path 15198" d="M215.76,205.81a2,2,0,0,0,.27.55,12.34,12.34,0,0,1,3.73,11.25c1.44-.66,2.33-2.1,3.85-2.64.07-.63.13-1.27.22-1.9.56-3.89-1.3-7.84-4.47-9.44a19.081,19.081,0,0,1-3.6,2.18Z" fill="#161b30"/>
    <path id="Path_15199" data-name="Path 15199" d="M206.18,159.26a65.425,65.425,0,0,1,3.32,6.91,36.87,36.87,0,0,1,2.17,11.28A9,9,0,0,0,214,172.2a12,12,0,0,0-6.72-12.64A1.67,1.67,0,0,0,206.18,159.26Z" fill="#161b30"/>
    <path id="Path_15200" data-name="Path 15200" d="M140,177.2a36.12,36.12,0,0,1,5.52-17.94,10.34,10.34,0,0,0-6.32,5,11.8,11.8,0,0,0,.67,13.24h0Z" fill="#161b30"/>
    <path id="Path_15201" data-name="Path 15201" d="M219.36,203.63c3.17,1.6,5,5.55,4.47,9.44-.09.63-.15,1.27-.22,1.9.42.62.38,1.77,1.64,1.43-.15-.81.6-1.23.81-1.9a11.89,11.89,0,0,0-5.33-13.29,1,1,0,0,1-.45-.59,15,15,0,0,0-.92,3.01Z" fill="#c5c7cb"/>
    <path id="Path_15202" data-name="Path 15202" d="M136.68,225.27c0-.52-.48-.67-.78-.94a12,12,0,0,1-4.16-9c-.05-.21-.09-.41-.17-.79l-2.25,4.35c.91,4.21,3.24,6.55,6.87,6.92Z" fill="#161b30"/>
    <path id="Path_15203" data-name="Path 15203" d="M146.75,141.94c2.19-.79,3.07-2.27,2.4-4a2.94,2.94,0,0,0-5.62.34,3,3,0,0,0,1.44,3.27c.3.16.61.3.92.44Z" fill="#161b30"/>
    <path id="Path_15204" data-name="Path 15204" d="M136.19,225.8c-3.63-.37-6-2.71-6.87-6.92a3,3,0,0,1-1-.68c-.47-.41-.64,0-.73.38-.59,4.21,3.81,8.87,7.65,9.39.76.11,1.4.29,1.54,1.17A10,10,0,0,0,136.19,225.8Z" fill="#c5c7cb"/>
    <path id="Path_15205" data-name="Path 15205" d="M249.7,121.87v6.8c0,.51-.18,1.27.7,1.21.73,0,.59-.72.59-1.21V115.08c0-.49.13-1.15-.63-1.16s-.63.67-.63,1.16v6.79Z" fill="#eaecf0"/>
    <path id="Path_15206" data-name="Path 15206" d="M244.58,123.69v5.11c0,.48,0,1,.62,1.08s.67-.56.67-1V118.39c0-.45,0-.92-.62-.93s-.69.5-.69,1v5.25Z" fill="#eaecf0"/>
    <path id="Path_15207" data-name="Path 15207" d="M256.2,124.37V120c0-.48,0-1.06-.61-1.09s-.68.54-.68,1v9c0,.48.05,1.05.67,1s.6-.62.61-1.09v-4.49Z" fill="#eaecf0"/>
    <path id="Path_15208" data-name="Path 15208" d="M220.88,164.12h58.08a11.488,11.488,0,0,0,1.54-.07,2.43,2.43,0,0,0-1.38-.16H222.24C221.78,163.91,221.29,163.77,220.88,164.12Z" fill="#c5c7cb"/>
    <path id="Path_15209" data-name="Path 15209" d="M146.75,141.94h-.86a7.51,7.51,0,0,1,.2,2.79c0,4.66,0,9.31-.06,14,.4-.47.93-.85,1.05-1.51-.46-.3-.29-.77-.31-1.17-.12-4.28.16-8.55-.14-12.82A7.8,7.8,0,0,1,146.75,141.94Z" fill="#c5c7cb"/>
    <path id="Path_15210" data-name="Path 15210" d="M280.79,164.41v2a2.54,2.54,0,0,0,0-2Z" fill="#c5c7cb"/>
    <path id="Path_15211" data-name="Path 15211" d="M206,159.07l.24.2Z" fill="#161b30"/>
    <path id="Path_15212" data-name="Path 15212" d="M145.52,159.25a.24.24,0,0,0,.18-.16C145.74,159.25,145.69,159.32,145.52,159.25Z" fill="#161b30"/>
    <path id="Path_15213" data-name="Path 15213" d="M163.23,209.78c-4.53.05-8.86,3.6-9.11,8.13-.36,6.36-.68,12.79.16,19.12,1.39,10.47,10.42,18.18,21.14,18.51a22,22,0,0,0,21.81-17.31,19.27,19.27,0,0,0,.49-4.07V219.25a9.44,9.44,0,0,0-8.708-9.41c-.362.42-.862.31-1.312.31h-23C164.15,210.15,163.6,210.28,163.23,209.78Z" fill="#161b30"/>
    <path id="Path_15214" data-name="Path 15214" d="M163.23,209.78c.37.5.92.37,1.42.37h23c.45,0,1,.11,1.31-.31-.46,0-.93-.12-1.39-.12H164a6.515,6.515,0,0,0-.77.06Z" fill="#121324"/>
    <path id="Path_15215" data-name="Path 15215" d="M140,177.2l-.13.33C140.09,177.47,140.1,177.35,140,177.2Z" fill="#56a9b7"/>
    <rect id="Rectangle_18724" data-name="Rectangle 18724" width="44.39" height="28.54" rx="6.05" transform="translate(197.93 186.36) rotate(180)" fill="#161b30"/>
    <path id="Path_15216" data-name="Path 15216" d="M175.84,179.49h-6.92c-1,0-1.09.32-.83,1.14a4.66,4.66,0,0,0,2.78,2.84,12.27,12.27,0,0,0,10.2-.13,4.31,4.31,0,0,0,2.51-2.76c.21-.7.09-1.11-.81-1.09C180.46,179.52,178.15,179.49,175.84,179.49Z" fill="#56a9b7"/>
    <path id="Path_15217" data-name="Path 15217" d="M184.58,169.91v3.46a1.2,1.2,0,0,0,1.3,1.38c3.19.22,3.32.1,3.32-3.12v-4.75c0-1.43-.33-1.74-1.72-1.76-2.9,0-2.9,0-2.91,2.86C184.57,168.62,184.57,169.26,184.58,169.91Z" fill="#56a9b7"/>
    <path id="Path_15218" data-name="Path 15218" d="M162.47,170v3.2c0,1.07.41,1.55,1.51,1.58,3.12.08,3.14.09,3.14-3v-4.87c0-1.44-.3-1.73-1.7-1.76-2.93-.06-2.93-.06-2.94,2.83Z" fill="#56a9b7"/>
  </g>
</svg>
