<svg xmlns="http://www.w3.org/2000/svg" width="224" height="224" viewBox="0 0 224 224">
  <g id="the_perks-02" data-name="the perks-02" transform="translate(-73.75 -83.71)">
    <circle id="Ellipse_339" data-name="Ellipse 339" cx="112" cy="112" r="112" transform="translate(73.75 83.71)" fill="#19707d"/>
    <path id="Path_15235" data-name="Path 15235" d="M273.25,156.15c-.74,0-1,.66-1.47,1.07-4.32,4.18-8.58,8.42-12.94,12.56-1.07,1-.76,2-.58,3.15q1.53,9,3.07,17.91a6.831,6.831,0,0,1,.05.75,8.32,8.32,0,0,1-2.71-1.18c-5-2.62-10-5.25-15-7.94a2,2,0,0,0-2.2,0c-5.4,2.88-10.83,5.71-16.26,8.54-.39.21-.84.67-1.24.42s-.17-.93-.09-1.4c1-6,2-11.95,3.09-17.91a2.3,2.3,0,0,0-.76-2.39c-4.29-4.12-8.54-8.29-12.81-12.45-.41-.39-.84-.75-1.46-1.31a32.221,32.221,0,0,1,6.22-1.12c4.28-.69,8.59-1.27,12.9-1.83a3.34,3.34,0,0,0,2.94-2.11c2.42-5.19,5-10.29,7.55-15.42.28-.56.57-1.11.86-1.67.67.31.76.92,1,1.41,2.63,5.28,5.28,10.54,7.82,15.85a3,3,0,0,0,2.53,1.89c5.89.8,11.77,1.65,17.66,2.49.62.09,1.23.21,1.85.32Z" fill="#febe41"/>
    <path id="Path_15236" data-name="Path 15236" d="M98.25,155.65l10.8-1.56c2.66-.39,5.31-.79,8-1.14a2.4,2.4,0,0,0,2-1.53c2.54-5.26,5.15-10.48,7.74-15.71.31-.61.63-1.2,1-1.88.63.34.75.92,1,1.39,2.62,5.28,5.26,10.55,7.79,15.87a2.94,2.94,0,0,0,2.53,1.9c5.89.81,11.78,1.66,17.66,2.5.5.08,1,.21,1.23.26-2.52,2.69-5.06,5.47-7.69,8.17-2,2.09-4.16,4.1-6.28,6.1a1.88,1.88,0,0,0-.53,2c1.09,6.07,2.12,12.16,3.15,18.24a11.756,11.756,0,0,1,.07,1.21c-.83.15-1.35-.38-1.93-.68-5.17-2.69-10.35-5.39-15.5-8.15a2.44,2.44,0,0,0-2.65,0c-5.23,2.83-10.52,5.56-15.8,8.32-.49.26-1,.48-1.86.89.53-3.13,1-6,1.49-8.78.61-3.55,1.22-7.1,1.86-10.65a3,3,0,0,0-1-2.86C106.85,164.91,102.51,160.2,98.25,155.65Z" fill="#fede41"/>
    <path id="Path_15237" data-name="Path 15237" d="M185.22,103.58c.64.31.71,1,1,1.53q4,8,7.9,16a2.27,2.27,0,0,0,2,1.46c6.27.83,12.53,1.79,18.78,2.71a6.192,6.192,0,0,1,.84.27c-1.77,1.83-3.44,3.61-5.18,5.32q-4.4,4.35-8.87,8.61a2.41,2.41,0,0,0-.8,2.53c1.15,6.11,2.15,12.24,3.2,18.36a10.509,10.509,0,0,1,0,1.27l-18.86-10Z" fill="#febe41"/>
    <path id="Path_15238" data-name="Path 15238" d="M185.22,103.58v48.07l-19,9.93c.55-3.32,1-6.29,1.53-9.25.61-3.54,1.22-7.09,1.9-10.62a2.28,2.28,0,0,0-.86-2.24q-6.48-6.25-12.92-12.57c-.35-.35-1-.67-.86-1.18s.95-.44,1.49-.52c5.88-.85,11.75-1.72,17.64-2.52a2.81,2.81,0,0,0,2.37-1.83c2.64-5.52,5.37-11,8.08-16.47A5.491,5.491,0,0,1,185.22,103.58Z" fill="#fede41"/>
    <path id="Path_15239" data-name="Path 15239" d="M237.18,243.15a82,82,0,0,1-1.79,10.33h-33c-1.33,0-1.83.33-1.76,1.72.11,2.35.08,4.7,0,7,0,1.15.26,1.62,1.52,1.61,10.47-.05,20.95,0,31.42-.05L231,279.26H185.56A2,2,0,0,0,185,279a39,39,0,0,1-21.61-9.32,3.16,3.16,0,0,0-2.21-.72h-12V243.15Z" fill="#febfb2"/>
    <path id="Path_15240" data-name="Path 15240" d="M149.15,243.14v25.81l-.06,10.31H128.47l.06-36.1h20.52Z" fill="#3d4b66"/>
    <path id="Path_15241" data-name="Path 15241" d="M237.18,243.15h-88.1V212.21H164.2c3.48,0,5.54-2.07,5.55-5.55v-34c0-1.39.4-1.86,1.75-1.68,7.93,1,13.7,5.08,17.14,12.31a18.5,18.5,0,0,1,1.76,8c0,6.3.07,12.61,0,18.9,0,1.63.38,2.13,2.07,2.12,15.92-.06,31.84,0,47.77,0,2.59,0,2.6,0,2.16,2.6-.7,4.16-1.41,8.3-2.14,12.45,0,.16-.17.29-.25.43H202.57c-1.4,0-1.92.35-1.84,1.81.11,2.23.1,4.47,0,6.69-.06,1.38.29,1.89,1.78,1.88,11.91-.06,23.81,0,35.72,0a28.468,28.468,0,0,1-1.05,4.98Z" fill="#fed4cb"/>
    <path id="Path_15242" data-name="Path 15242" d="M149.07,212.23v30.94H128.53c0-10,0-19.91-.08-29.87,0-1,.4-1.1,1.22-1.1Q139.375,212.23,149.07,212.23Z" fill="#4d5e80"/>
    <path id="Path_15243" data-name="Path 15243" d="M238.16,238H202.44c-1.49,0-1.84-.5-1.78-1.88.1-2.22.11-4.46,0-6.69-.08-1.46.44-1.82,1.84-1.81h37.44A89.932,89.932,0,0,1,238.16,238Z" fill="#febfb2"/>
    <path id="Path_15244" data-name="Path 15244" d="M233.61,263.76c-10.47,0-21,0-31.42.05-1.26,0-1.55-.46-1.52-1.61.07-2.34.1-4.69,0-7-.07-1.39.43-1.72,1.76-1.72,11,.05,22,0,33,0Q234.51,258.63,233.61,263.76Z" fill="#fea999"/>
  </g>
</svg>
